Final-Project/code/working-copy/dump.vcd
$date
	Thu Oct 10 15:08:54 2024
$end

$version
	Synopsys VCS version L-2016.06_Full64
$end

$timescale
	1s
$end

$comment Csum: 1 23f249f9a74ca972 $end


$scope module $unit $end

$scope task WRITE $end
$upscope $end


$scope task READ $end
$var reg 32 ! temp [31:0] $end
$upscope $end

$upscope $end


$scope module ahb3lite_pkg $end
$upscope $end


$scope module tb_top $end
$var reg 1 " HCLK $end
$var reg 1 # HRESETn $end

$scope module ahb_intf $end
$var reg 1 $ HCLK $end
$var reg 1 % HRESETn $end
$var reg 1 & HSEL $end
$var reg 32 ' HADDR [31:0] $end
$var reg 32 ( HWDATA [31:0] $end
$var reg 32 ) HRDATA [31:0] $end
$var reg 1 * HWRITE $end
$var reg 3 + HSIZE [2:0] $end
$var reg 3 , HBURST [2:0] $end
$var reg 4 - HPROT [3:0] $end
$var reg 2 . HTRANS [1:0] $end
$var reg 1 / HREADYOUT $end
$var reg 1 0 HREADY $end
$var reg 1 1 HRESP $end
$upscope $end


$scope module UUT $end
$var wire 1 2 HRESETn $end
$var wire 1 3 HCLK $end
$var wire 1 4 HSEL $end
$var wire 32 5 HADDR [31:0] $end
$var wire 32 6 HWDATA [31:0] $end
$var reg 32 7 HRDATA [31:0] $end
$var wire 1 8 HWRITE $end
$var wire 3 9 HSIZE [2:0] $end
$var wire 3 : HBURST [2:0] $end
$var wire 4 ; HPROT [3:0] $end
$var wire 2 < HTRANS [1:0] $end
$var reg 1 / HREADYOUT $end
$var wire 1 = HREADY $end
$var wire 1 > HRESP $end
$var reg 1 ? ahb_write $end
$var reg 1 @ ahb_read $end
$var reg 1 A ahb_noseq $end
$var reg 1 B was_ahb_noseq $end
$var reg 1 C we $end
$var reg 4 D be [3:0] $end
$var reg 8 E raddr [7:0] $end
$var reg 8 F waddr [7:0] $end
$var reg 32 G nxt_adr [31:0] $end
$var reg 1 H contention $end
$var reg 1 I use_local_dout $end
$var reg 32 J dout [31:0] $end
$var reg 32 K dout_local [31:0] $end

$scope module ram_inst $end
$var wire 1 2 rst_ni $end
$var wire 1 3 clk_i $end
$var wire 8 F waddr_i [7:0] $end
$var wire 32 6 din_i [31:0] $end
$var wire 1 C we_i $end
$var wire 4 D be_i [3:0] $end
$var wire 8 E raddr_i [7:0] $end
$var wire 1 4 re_i $end
$var wire 32 L dout_o [31:0] $end
$var reg 1 M contention $end
$var reg 1 N contention_reg $end
$var reg 32 O mem_dout [31:0] $end
$var reg 32 P din_dly [31:0] $end

$scope module genblk1.ram_inst $end
$var wire 1 2 rst_ni $end
$var wire 1 3 clk_i $end
$var wire 8 F waddr_i [7:0] $end
$var wire 32 6 din_i [31:0] $end
$var wire 1 C we_i $end
$var wire 4 D be_i [3:0] $end
$var wire 8 E raddr_i [7:0] $end
$var reg 32 O dout_o [31:0] $end
$var integer 32 Q file $end

$scope function is_power_of_2 $end
$var reg 1 R is_power_of_2 $end
$var reg 32 S n [31:0] $end
$upscope $end


$scope function max $end
$var reg 32 T max [31:0] $end
$var reg 32 U a [31:0] $end
$var reg 32 V b [31:0] $end
$upscope $end

$upscope $end

$upscope $end

$upscope $end

$upscope $end

$enddefinitions $end

#0
$dumpvars
b00000000000000000000000000000000 !
0"
0#
bxx .
bxxxx -
bxxx ,
bxxx +
bxxxxxxxxxxxxxxxxxxxxxxxxxxxxxxxx )
bxxxxxxxxxxxxxxxxxxxxxxxxxxxxxxxx (
bxxxxxxxxxxxxxxxxxxxxxxxxxxxxxxxx '
xA
x@
x?
xH
xN
1R
xM
xI
1B
xC
bxxxxxxxxxxxxxxxxxxxxxxxxxxxxxxxx 7
bxxxx D
bxxxxxxxxxxxxxxxxxxxxxxxxxxxxxxxx P
bxxxxxxxxxxxxxxxxxxxxxxxxxxxxxxxx J
bxxxxxxxxxxxxxxxxxxxxxxxxxxxxxxxx K
bxxxxxxxxxxxxxxxxxxxxxxxxxxxxxxxx Q
bxxxxxxxxxxxxxxxxxxxxxxxxxxxxxxxx O
bxxxxxxxxxxxxxxxxxxxxxxxxxxxxxxxx G
bxxxxxxxx E
bxxxxxxxxxxxxxxxxxxxxxxxxxxxxxxxx L
bxxxxxxxx F
b00000000000000000000000000000001 S
b00000000000000000000000000000000 V
b00000000000000000000000000000000 U
b00000000000000000000000000000000 T
0$
0%
03
02
bxxxxxxxxxxxxxxxxxxxxxxxxxxxxxxxx 5
bxxxxxxxxxxxxxxxxxxxxxxxxxxxxxxxx 6
bxxx 9
bxxx :
bxxxx ;
bxx <
x4
x8
x=
0>
x0
01
x&
x*
1/
$end
#5
1"
13
1$
0C
0M
0&
04
b00000000000000000000000000000000 '
b00000000000000000000000000000000 5
b00000000 E
b00000000000000000000000000000000 (
b00000000000000000000000000000000 6
0*
08
b000 +
b000 9
b000 ,
b000 :
b0000 -
b0000 ;
b00 .
b00 <
00
0=
b00000000000000000000000000000001 G
1A
0@
0?
#10
0"
03
0$
#15
1"
13
1$
1#
12
1%
0I
0H
0N
b00000000000000000000000000000000 P
b11011110101011011011111011101111 O
b11011110101011011011111011101111 L
b11011110101011011011111011101111 J
b11011110101011011011111011101111 7
b11011110101011011011111011101111 )
#20
0"
03
0$
#25
1"
13
1$
10
1=
1&
14
b00000000000000000000000000111000 '
b00000000000000000000000000111000 5
b00001110 E
b010 +
b010 9
b010 ,
b010 :
b0001 -
b0001 ;
b10 .
b10 <
1*
18
b10000001010111111000110101110100 (
b10000001010111111000110101110100 6
b00000000000000000000000000111001 G
b00000000000000000000000000111100 G
0@
1?
#30
0"
03
0$
#35
1"
13
1$
1C
b1111 D
b00001110 F
b10000001010111111000110101110100 P
1M
#40
0"
03
0$
#45
1"
13
1$
1I
b10000001010111111000110101110100 K
1N
b10000001010111111000110101110100 L
b10000001010111111000110101110100 J
b10000001010111111000110101110100 7
b10000001010111111000110101110100 )
b00000000000000000000000000111100 '
b00000000000000000000000000111100 5
b00001111 E
b11 .
b11 <
b11111010110101011100100010011011 (
b11111010110101011100100010011011 6
0M
b00000000000000000000000000110000 G
0A
#50
0"
03
0$
#55
1"
13
1$
b00001111 F
0I
b11111010110101011100100010011011 K
0N
b11011110101011011011111011101111 L
b11111010110101011100100010011011 P
0B
1M
b11011110101011011011111011101111 J
b11011110101011011011111011101111 7
b11011110101011011011111011101111 )
#60
0"
03
0$
#65
1"
13
1$
1I
1N
b11111010110101011100100010011011 L
b11111010110101011100100010011011 J
b11111010110101011100100010011011 7
b11111010110101011100100010011011 )
b00000000000000000000000000110000 '
b00000000000000000000000000110000 5
b00001100 E
b01000111000111001110111101011111 (
b01000111000111001110111101011111 6
0M
b00000000000000000000000000110100 G
#70
0"
03
0$
#75
1"
13
1$
b00001100 F
0I
b01000111000111001110111101011111 K
0N
b11011110101011011011111011101111 L
b01000111000111001110111101011111 P
1M
b11011110101011011011111011101111 J
b11011110101011011011111011101111 7
b11011110101011011011111011101111 )
#80
0"
03
0$
#85
1"
13
1$
1I
1N
b01000111000111001110111101011111 L
b01000111000111001110111101011111 J
b01000111000111001110111101011111 7
b01000111000111001110111101011111 )
b00000000000000000000000000110100 '
b00000000000000000000000000110100 5
b00001101 E
b01111001111010000000011101011111 (
b01111001111010000000011101011111 6
0M
b00000000000000000000000000111000 G
#90
0"
03
0$
#95
1"
13
1$
b00001101 F
0I
b01111001111010000000011101011111 K
0N
b11011110101011011011111011101111 L
b01111001111010000000011101011111 P
1M
b11011110101011011011111011101111 J
b11011110101011011011111011101111 7
b11011110101011011011111011101111 )
#100
0"
03
0$
#105
1"
13
1$
1I
1N
b01111001111010000000011101011111 L
b01111001111010000000011101011111 J
b01111001111010000000011101011111 7
b01111001111010000000011101011111 )
b01101010011111011111101100001110 (
b01101010011111011111101100001110 6
#110
0"
03
0$
#115
1"
13
1$
b01101010011111011111101100001110 K
b01101010011111011111101100001110 P
b01101010011111011111101100001110 L
b01111001111010000000011101011111 O
b01101010011111011111101100001110 J
b01101010011111011111101100001110 7
b01101010011111011111101100001110 )
#120
0"
03
0$
#125
1"
13
1$
b01101010011111011111101100001110 O
b00000000000000000000000000111000 '
b00000000000000000000000000111000 5
b00001110 E
b10 .
b10 <
0*
08
0M
b00000000000000000000000000111100 G
1A
1@
0?
#130
0"
03
0$
#135
1"
13
1$
0C
b00001110 F
0I
0N
b11111010110101011100100010011011 O
b11111010110101011100100010011011 L
1B
b11111010110101011100100010011011 J
b11111010110101011100100010011011 7
b11111010110101011100100010011011 )
#140
0"
03
0$
#145
1"
13
1$
#150
0"
03
0$
#155
1"
13
1$
b11011110101011011011111011101111 !
b00000000000000000000000000111100 '
b00000000000000000000000000111100 5
b00001111 E
b11 .
b11 <
b00000000000000000000000000110000 G
0A
#160
0"
03
0$
#165
1"
13
1$
b00001111 F
b01000111000111001110111101011111 O
b01000111000111001110111101011111 L
0B
b01000111000111001110111101011111 J
b01000111000111001110111101011111 7
b01000111000111001110111101011111 )
#170
0"
03
0$
#175
1"
13
1$
#180
0"
03
0$
#185
1"
13
1$
b11111010110101011100100010011011 !
b00000000000000000000000000110000 '
b00000000000000000000000000110000 5
b00001100 E
b00000000000000000000000000110100 G
#190
0"
03
0$
#195
1"
13
1$
b00001100 F
b01111001111010000000011101011111 O
b01111001111010000000011101011111 L
b01111001111010000000011101011111 J
b01111001111010000000011101011111 7
b01111001111010000000011101011111 )
#200
0"
03
0$
#205
1"
13
1$
#210
0"
03
0$
#215
1"
13
1$
b01000111000111001110111101011111 !
b00000000000000000000000000110100 '
b00000000000000000000000000110100 5
b00001101 E
b00000000000000000000000000111000 G
#220
0"
03
0$
#225
1"
13
1$
b00001101 F
b01101010011111011111101100001110 O
b01101010011111011111101100001110 L
b01101010011111011111101100001110 J
b01101010011111011111101100001110 7
b01101010011111011111101100001110 )
#230
0"
03
0$
#235
1"
13
1$
#240
0"
03
0$
#245
1"
13
1$
b01101010011111011111101100001110 !
