Final-Project/code/working-copy/dump.vcd
$date
	Thu Oct 10 20:02:28 2024
$end

$version
	Synopsys VCS version L-2016.06_Full64
$end

$timescale
	1s
$end

$comment Csum: 1 acc1012d372b2514 $end


$scope module $unit $end

$scope task WRITE $end
$upscope $end


$scope task READ $end
$var reg 32 ! temp [31:0] $end
$upscope $end


$scope task burst $end
$upscope $end


$scope task htrans $end
$upscope $end

$upscope $end


$scope module ahb3lite_pkg $end
$upscope $end


$scope module tb_top $end
$var reg 1 " HCLK $end
$var reg 1 # HRESETn $end

$scope module ahb_intf $end
$var reg 1 $ HCLK $end
$var reg 1 % HRESETn $end
$var reg 1 & HSEL $end
$var reg 32 ' HADDR [31:0] $end
$var reg 32 ( HWDATA [31:0] $end
$var reg 32 ) HRDATA [31:0] $end
$var reg 1 * HWRITE $end
$var reg 3 + HSIZE [2:0] $end
$var reg 3 , HBURST [2:0] $end
$var reg 4 - HPROT [3:0] $end
$var reg 2 . HTRANS [1:0] $end
$var reg 1 / HREADYOUT $end
$var reg 1 0 HREADY $end
$var reg 1 1 HRESP $end
$upscope $end


$scope module UUT $end
$var wire 1 2 HRESETn $end
$var wire 1 3 HCLK $end
$var wire 1 4 HSEL $end
$var wire 32 5 HADDR [31:0] $end
$var wire 32 6 HWDATA [31:0] $end
$var reg 32 7 HRDATA [31:0] $end
$var wire 1 8 HWRITE $end
$var wire 3 9 HSIZE [2:0] $end
$var wire 3 : HBURST [2:0] $end
$var wire 4 ; HPROT [3:0] $end
$var wire 2 < HTRANS [1:0] $end
$var reg 1 / HREADYOUT $end
$var wire 1 = HREADY $end
$var wire 1 > HRESP $end
$var reg 1 ? ahb_write $end
$var reg 1 @ ahb_read $end
$var reg 1 A ahb_noseq $end
$var reg 1 B was_ahb_noseq $end
$var reg 1 C we $end
$var reg 4 D be [3:0] $end
$var reg 8 E raddr [7:0] $end
$var reg 8 F waddr [7:0] $end
$var reg 32 G nxt_adr [31:0] $end
$var reg 1 H contention $end
$var reg 1 I use_local_dout $end
$var reg 32 J dout [31:0] $end
$var reg 32 K dout_local [31:0] $end

$scope module ram_inst $end
$var wire 1 2 rst_ni $end
$var wire 1 3 clk_i $end
$var wire 8 F waddr_i [7:0] $end
$var wire 32 6 din_i [31:0] $end
$var wire 1 C we_i $end
$var wire 4 D be_i [3:0] $end
$var wire 8 E raddr_i [7:0] $end
$var wire 1 4 re_i $end
$var wire 32 L dout_o [31:0] $end
$var reg 1 M contention $end
$var reg 1 N contention_reg $end
$var reg 32 O mem_dout [31:0] $end
$var reg 32 P din_dly [31:0] $end

$scope module genblk1.ram_inst $end
$var wire 1 2 rst_ni $end
$var wire 1 3 clk_i $end
$var wire 8 F waddr_i [7:0] $end
$var wire 32 6 din_i [31:0] $end
$var wire 1 C we_i $end
$var wire 4 D be_i [3:0] $end
$var wire 8 E raddr_i [7:0] $end
$var reg 32 O dout_o [31:0] $end
$var integer 32 Q file $end

$scope function is_power_of_2 $end
$var reg 1 R is_power_of_2 $end
$var reg 32 S n [31:0] $end
$upscope $end


$scope function max $end
$var reg 32 T max [31:0] $end
$var reg 32 U a [31:0] $end
$var reg 32 V b [31:0] $end
$upscope $end

$upscope $end

$upscope $end

$upscope $end

$upscope $end

$enddefinitions $end

#0
$dumpvars
b00000000000000000000000000000000 !
0"
0#
bxx .
bxxxx -
bxxx ,
bxxx +
bxxxxxxxxxxxxxxxxxxxxxxxxxxxxxxxx )
bxxxxxxxxxxxxxxxxxxxxxxxxxxxxxxxx (
bxxxxxxxxxxxxxxxxxxxxxxxxxxxxxxxx '
xA
x@
x?
xH
xN
1R
xM
xI
1B
xC
bxxxxxxxxxxxxxxxxxxxxxxxxxxxxxxxx 7
bxxxx D
bxxxxxxxxxxxxxxxxxxxxxxxxxxxxxxxx P
bxxxxxxxxxxxxxxxxxxxxxxxxxxxxxxxx J
bxxxxxxxxxxxxxxxxxxxxxxxxxxxxxxxx K
bxxxxxxxxxxxxxxxxxxxxxxxxxxxxxxxx Q
bxxxxxxxxxxxxxxxxxxxxxxxxxxxxxxxx O
bxxxxxxxxxxxxxxxxxxxxxxxxxxxxxxxx G
bxxxxxxxx E
bxxxxxxxxxxxxxxxxxxxxxxxxxxxxxxxx L
bxxxxxxxx F
b00000000000000000000000000000001 S
b00000000000000000000000000000000 V
b00000000000000000000000000000000 U
b00000000000000000000000000000000 T
0$
0%
03
02
bxxxxxxxxxxxxxxxxxxxxxxxxxxxxxxxx 5
bxxxxxxxxxxxxxxxxxxxxxxxxxxxxxxxx 6
bxxx 9
bxxx :
bxxxx ;
bxx <
x4
x8
x=
0>
x0
01
x&
x*
1/
$end
#5
1"
13
1$
0C
0M
0&
04
b00000000000000000000000000000000 '
b00000000000000000000000000000000 5
b00000000 E
b00000000000000000000000000000000 (
b00000000000000000000000000000000 6
0*
08
b000 +
b000 9
b000 ,
b000 :
b0000 -
b0000 ;
b00 .
b00 <
00
0=
b00000000000000000000000000000001 G
1A
0@
0?
#10
0"
03
0$
#15
1"
13
1$
1#
12
1%
0I
0H
0N
b00000000000000000000000000000000 P
b11011110101011011011111011101111 O
b11011110101011011011111011101111 L
b11011110101011011011111011101111 J
b11011110101011011011111011101111 7
b11011110101011011011111011101111 )
#20
0"
03
0$
#25
1"
13
1$
10
1=
1&
14
b0001 -
b0001 ;
b10 .
b10 <
1@
#30
0"
03
0$
#35
1"
13
1$
b0001 D
b00000000 F
b00101011010111000010110001101110 (
b00101011010111000010110001101110 6
1*
18
0@
1?
#40
0"
03
0$
#45
1"
13
1$
1C
b00101011010111000010110001101110 P
1M
0*
08
1@
0?
#50
0"
03
0$
#55
1"
13
1$
0C
1I
b11011110101011011011111001101110 K
1H
1N
b00101011010111000010110001101110 L
0M
b11011110101011011011111001101110 7
b11011110101011011011111001101110 )
b00101011010111000010110001101110 J
#60
0"
03
0$
#65
1"
13
1$
0I
0H
0N
b11011110101011011011111011101111 L
b11011110101011011011111001101110 O
b11011110101011011011111001101110 L
b00101011010111000010110001101110 7
b00101011010111000010110001101110 )
b11011110101011011011111001101110 J
b11011110101011011011111001101110 7
b11011110101011011011111001101110 )
b00000000000000000000000000000001 '
b00000000000000000000000000000001 5
b00000000000000000000000000000010 G
#70
0"
03
0$
#75
1"
13
1$
b0010 D
b00000000000000000000000001101110 !
b11111010110101011100100010011011 (
b11111010110101011100100010011011 6
1*
18
0@
1?
#80
0"
03
0$
#85
1"
13
1$
1C
b11111010110101011100100010011011 P
1M
0*
08
1@
0?
#90
0"
03
0$
#95
1"
13
1$
0C
1I
b11011110101011011100100001101110 K
1H
1N
b11111010110101011100100010011011 L
0M
b11011110101011011100100001101110 7
b11011110101011011100100001101110 )
b11111010110101011100100010011011 J
#100
0"
03
0$
#105
1"
13
1$
0I
0H
0N
b11011110101011011011111001101110 L
b11011110101011011100100001101110 O
b11011110101011011100100001101110 L
b11111010110101011100100010011011 7
b11111010110101011100100010011011 )
b11011110101011011100100001101110 J
b11011110101011011100100001101110 7
b11011110101011011100100001101110 )
b00000000000000000000000000000010 '
b00000000000000000000000000000010 5
b00000000000000000000000000000011 G
#110
0"
03
0$
#115
1"
13
1$
b0100 D
b00000000000000000000000011001000 !
b10101110101100000001000111011110 (
b10101110101100000001000111011110 6
1*
18
0@
1?
#120
0"
03
0$
#125
1"
13
1$
1C
b10101110101100000001000111011110 P
1M
0*
08
1@
0?
#130
0"
03
0$
#135
1"
13
1$
0C
1I
b11011110101100001100100001101110 K
1H
1N
b10101110101100000001000111011110 L
0M
b11011110101100001100100001101110 7
b11011110101100001100100001101110 )
b10101110101100000001000111011110 J
#140
0"
03
0$
#145
1"
13
1$
0I
0H
0N
b11011110101011011100100001101110 L
b11011110101100001100100001101110 O
b11011110101100001100100001101110 L
b10101110101100000001000111011110 7
b10101110101100000001000111011110 )
b11011110101100001100100001101110 J
b11011110101100001100100001101110 7
b11011110101100001100100001101110 )
b00000000000000000000000000000011 '
b00000000000000000000000000000011 5
b00000000000000000000000000000100 G
#150
0"
03
0$
#155
1"
13
1$
b1000 D
b00000000000000000000000010110000 !
b10111100001100001000000011011000 (
b10111100001100001000000011011000 6
1*
18
0@
1?
#160
0"
03
0$
#165
1"
13
1$
1C
b10111100001100001000000011011000 P
1M
0*
08
1@
0?
#170
0"
03
0$
#175
1"
13
1$
0C
1I
b10111100101100001100100001101110 K
1H
1N
b10111100001100001000000011011000 L
0M
b10111100101100001100100001101110 7
b10111100101100001100100001101110 )
b10111100001100001000000011011000 J
#180
0"
03
0$
#185
1"
13
1$
0I
0H
0N
b11011110101100001100100001101110 L
b10111100101100001100100001101110 O
b10111100101100001100100001101110 L
b10111100001100001000000011011000 7
b10111100001100001000000011011000 )
b10111100101100001100100001101110 J
b10111100101100001100100001101110 7
b10111100101100001100100001101110 )
b00000000000000000000000000000100 '
b00000000000000000000000000000100 5
b00000001 E
b00000000000000000000000000000101 G
#190
0"
03
0$
#195
1"
13
1$
b0001 D
b00000001 F
b11011110101011011011111011101111 O
b11011110101011011011111011101111 L
b11011110101011011011111011101111 J
b11011110101011011011111011101111 7
b11011110101011011011111011101111 )
b00000000000000000000000010111100 !
b00111010111101110101010000101001 (
b00111010111101110101010000101001 6
1*
18
0@
1?
#200
0"
03
0$
#205
1"
13
1$
1C
b00111010111101110101010000101001 P
1M
0*
08
1@
0?
#210
0"
03
0$
#215
1"
13
1$
0C
1I
b11011110101011011011111000101001 K
1H
1N
b00111010111101110101010000101001 L
0M
b11011110101011011011111000101001 7
b11011110101011011011111000101001 )
b00111010111101110101010000101001 J
