Final-Project/code/working-copy/dump.vcd
$date
	Tue Oct  8 23:47:51 2024
$end

$version
	Synopsys VCS version L-2016.06_Full64
$end

$timescale
	1s
$end

$comment Csum: 1 23f249f9a74ca972 $end


$scope module $unit $end

$scope task WRITE $end
$upscope $end


$scope task READ $end
$var reg 32 ! temp [31:0] $end
$upscope $end

$upscope $end


$scope module ahb3lite_pkg $end
$upscope $end


$scope module tb_top $end
$var reg 1 " HCLK $end
$var reg 1 # HRESETn $end

$scope module ahb_intf $end
$var reg 1 $ HCLK $end
$var reg 1 % HRESETn $end
$var reg 1 & HSEL $end
$var reg 32 ' HADDR [31:0] $end
$var reg 32 ( HWDATA [31:0] $end
$var reg 32 ) HRDATA [31:0] $end
$var reg 1 * HWRITE $end
$var reg 3 + HSIZE [2:0] $end
$var reg 3 , HBURST [2:0] $end
$var reg 4 - HPROT [3:0] $end
$var reg 2 . HTRANS [1:0] $end
$var reg 1 / HREADYOUT $end
$var reg 1 0 HREADY $end
$var reg 1 1 HRESP $end
$upscope $end


$scope module UUT $end
$var wire 1 2 HRESETn $end
$var wire 1 3 HCLK $end
$var wire 1 4 HSEL $end
$var wire 32 5 HADDR [31:0] $end
$var wire 32 6 HWDATA [31:0] $end
$var reg 32 7 HRDATA [31:0] $end
$var wire 1 8 HWRITE $end
$var wire 3 9 HSIZE [2:0] $end
$var wire 3 : HBURST [2:0] $end
$var wire 4 ; HPROT [3:0] $end
$var wire 2 < HTRANS [1:0] $end
$var reg 1 / HREADYOUT $end
$var wire 1 = HREADY $end
$var wire 1 > HRESP $end
$var reg 1 ? ahb_write $end
$var reg 1 @ ahb_read $end
$var reg 1 A ahb_noseq $end
$var reg 1 B was_ahb_noseq $end
$var reg 1 C we $end
$var reg 4 D be [3:0] $end
$var reg 8 E raddr [7:0] $end
$var reg 8 F waddr [7:0] $end
$var reg 32 G nxt_adr [31:0] $end
$var reg 1 H contention $end
$var reg 1 I use_local_dout $end
$var reg 32 J dout [31:0] $end
$var reg 32 K dout_local [31:0] $end

$scope module ram_inst $end
$var wire 1 2 rst_ni $end
$var wire 1 3 clk_i $end
$var wire 8 F waddr_i [7:0] $end
$var wire 32 6 din_i [31:0] $end
$var wire 1 C we_i $end
$var wire 4 D be_i [3:0] $end
$var wire 8 E raddr_i [7:0] $end
$var wire 1 4 re_i $end
$var wire 32 L dout_o [31:0] $end
$var reg 1 M contention $end
$var reg 1 N contention_reg $end
$var reg 32 O mem_dout [31:0] $end
$var reg 32 P din_dly [31:0] $end

$scope module genblk1.ram_inst $end
$var wire 1 2 rst_ni $end
$var wire 1 3 clk_i $end
$var wire 8 F waddr_i [7:0] $end
$var wire 32 6 din_i [31:0] $end
$var wire 1 C we_i $end
$var wire 4 D be_i [3:0] $end
$var wire 8 E raddr_i [7:0] $end
$var reg 32 O dout_o [31:0] $end
$var integer 32 Q file $end

$scope function is_power_of_2 $end
$var reg 1 R is_power_of_2 $end
$var reg 32 S n [31:0] $end
$upscope $end


$scope function max $end
$var reg 32 T max [31:0] $end
$var reg 32 U a [31:0] $end
$var reg 32 V b [31:0] $end
$upscope $end

$upscope $end

$upscope $end

$upscope $end

$upscope $end

$enddefinitions $end

#0
$dumpvars
b00000000000000000000000000000000 !
0"
0#
bxx .
bxxxx -
bxxx ,
bxxx +
bxxxxxxxxxxxxxxxxxxxxxxxxxxxxxxxx )
bxxxxxxxxxxxxxxxxxxxxxxxxxxxxxxxx (
bxxxxxxxxxxxxxxxxxxxxxxxxxxxxxxxx '
xA
x@
x?
xH
xN
1R
xM
xI
1B
xC
bxxxxxxxxxxxxxxxxxxxxxxxxxxxxxxxx 7
bxxxx D
bxxxxxxxxxxxxxxxxxxxxxxxxxxxxxxxx P
bxxxxxxxxxxxxxxxxxxxxxxxxxxxxxxxx J
bxxxxxxxxxxxxxxxxxxxxxxxxxxxxxxxx K
bxxxxxxxxxxxxxxxxxxxxxxxxxxxxxxxx Q
bxxxxxxxxxxxxxxxxxxxxxxxxxxxxxxxx O
bxxxxxxxxxxxxxxxxxxxxxxxxxxxxxxxx G
bxxxxxxxx E
bxxxxxxxxxxxxxxxxxxxxxxxxxxxxxxxx L
bxxxxxxxx F
b00000000000000000000000000000001 S
b00000000000000000000000000000000 V
b00000000000000000000000000000000 U
b00000000000000000000000000000000 T
0$
0%
03
02
bxxxxxxxxxxxxxxxxxxxxxxxxxxxxxxxx 5
bxxxxxxxxxxxxxxxxxxxxxxxxxxxxxxxx 6
bxxx 9
bxxx :
bxxxx ;
bxx <
x4
x8
x=
0>
x0
01
x&
x*
1/
$end
#5
1"
13
1$
0C
0M
0&
04
b00000000000000000000000000000000 '
b00000000000000000000000000000000 5
b00000000 E
b00000000000000000000000000000000 (
b00000000000000000000000000000000 6
0*
08
b000 +
b000 9
b000 ,
b000 :
b0000 -
b0000 ;
b00 .
b00 <
00
0=
b00000000000000000000000000000001 G
1A
0@
0?
#10
0"
03
0$
#15
1"
13
1$
1#
12
1%
0I
0H
0N
b00000000000000000000000000000000 P
b11011110101011011011111011101111 O
b11011110101011011011111011101111 L
b11011110101011011011111011101111 J
b11011110101011011011111011101111 7
b11011110101011011011111011101111 )
#20
0"
03
0$
#25
1"
13
1$
10
1=
1&
14
b00000000000000000000000001111100 '
b00000000000000000000000001111100 5
b00011111 E
b010 +
b010 9
b0001 -
b0001 ;
1*
18
b11001111010101111000010101010100 (
b11001111010101111000010101010100 6
b00000000000000000000000001111101 G
b00000000000000000000000010000000 G
#30
0"
03
0$
#35
1"
13
1$
b1111 D
b00011111 F
b11001111010101111000010101010100 P
#40
0"
03
0$
#45
1"
13
1$
b00000000000000000000000000001100 '
b00000000000000000000000000001100 5
b00000011 E
b10 .
b10 <
0*
08
b00000000000000000000000000010000 G
0?
1@
#50
0"
03
0$
#55
1"
13
1$
b00000011 F
#60
0"
03
0$
#65
1"
13
1$
b00000000000000000000000000010100 '
b00000000000000000000000000010100 5
b00000101 E
1*
18
b10111100001100001000000011011000 (
b10111100001100001000000011011000 6
b00000000000000000000000000011000 G
0@
1?
#70
0"
03
0$
#75
1"
13
1$
1C
b00000101 F
b10111100001100001000000011011000 P
1M
b11011110101011011011111011101111 !
#80
0"
03
0$
#85
1"
13
1$
1I
b10111100001100001000000011011000 K
1N
b10111100001100001000000011011000 L
b10111100001100001000000011011000 J
b10111100001100001000000011011000 7
b10111100001100001000000011011000 )
b00000000000000000000000000111000 '
b00000000000000000000000000111000 5
b00001110 E
0*
08
0M
b00000000000000000000000000111100 G
1@
0?
#90
0"
03
0$
#95
1"
13
1$
0C
b00001110 F
0I
0N
b11011110101011011011111011101111 L
b11011110101011011011111011101111 J
b11011110101011011011111011101111 7
b11011110101011011011111011101111 )
#100
0"
03
0$
#105
1"
13
1$
b00000000000000000000000010010100 '
b00000000000000000000000010010100 5
b00100101 E
b00 .
b00 <
1*
18
b11101011010011101100010001001001 (
b11101011010011101100010001001001 6
b00000000000000000000000010011000 G
0@
1A
#110
0"
03
0$
#115
1"
13
1$
b00100101 F
b11101011010011101100010001001001 P
#120
0"
03
0$
#125
1"
13
1$
b00000000000000000000000001101100 '
b00000000000000000000000001101100 5
b00011011 E
0*
08
b00000000000000000000000001110000 G
#130
0"
03
0$
#135
1"
13
1$
b00011011 F
#140
0"
03
0$
#145
1"
13
1$
b00000000000000000000000011010100 '
b00000000000000000000000011010100 5
b00110101 E
b11 .
b11 <
1*
18
b01011011111101001001000000110000 (
b01011011111101001001000000110000 6
b00000000000000000000000011011000 G
0@
0A
1?
#150
0"
03
0$
#155
1"
13
1$
1C
b00110101 F
b01011011111101001001000000110000 P
0B
1M
#160
0"
03
0$
#165
1"
13
1$
1I
b01011011111101001001000000110000 K
1N
b01011011111101001001000000110000 L
b01011011111101001001000000110000 J
b01011011111101001001000000110000 7
b01011011111101001001000000110000 )
b00000000000000000000000010010000 '
b00000000000000000000000010010000 5
b00100100 E
b10 .
b10 <
0*
08
0M
b00000000000000000000000010010100 G
1A
1@
0?
#170
0"
03
0$
#175
1"
13
1$
0C
b00100100 F
0I
0N
b11011110101011011011111011101111 L
1B
b11011110101011011011111011101111 J
b11011110101011011011111011101111 7
b11011110101011011011111011101111 )
#180
0"
03
0$
#185
1"
13
1$
b00000000000000000000000011011100 '
b00000000000000000000000011011100 5
b00110111 E
b11 .
b11 <
1*
18
b01011100110011001011011101001001 (
b01011100110011001011011101001001 6
b00000000000000000000000011100000 G
0A
0@
1?
#190
0"
03
0$
#195
1"
13
1$
1C
b00110111 F
b01011100110011001011011101001001 P
0B
1M
#200
0"
03
0$
#205
1"
13
1$
1I
b01011100110011001011011101001001 K
1N
b01011100110011001011011101001001 L
b01011100110011001011011101001001 J
b01011100110011001011011101001001 7
b01011100110011001011011101001001 )
b00000000000000000000000001011100 '
b00000000000000000000000001011100 5
b00010111 E
b01 .
b01 <
0*
08
0M
b00000000000000000000000001100000 G
0?
#210
0"
03
0$
#215
1"
13
1$
0C
b00010111 F
0I
0N
b11011110101011011011111011101111 L
b11011110101011011011111011101111 J
b11011110101011011011111011101111 7
b11011110101011011011111011101111 )
#220
0"
03
0$
#225
1"
13
1$
b00000000000000000000000000100000 '
b00000000000000000000000000100000 5
b00001000 E
b11 .
b11 <
1*
18
b11000111110100001101011010110001 (
b11000111110100001101011010110001 6
b00000000000000000000000000100100 G
0@
1?
#230
0"
03
0$
#235
1"
13
1$
1C
b00001000 F
b11000111110100001101011010110001 P
1M
#240
0"
03
0$
#245
1"
13
1$
1I
b11000111110100001101011010110001 K
1N
b11000111110100001101011010110001 L
b11000111110100001101011010110001 J
b11000111110100001101011010110001 7
b11000111110100001101011010110001 )
b00000000000000000000000001100100 '
b00000000000000000000000001100100 5
b00011001 E
0*
08
0M
b00000000000000000000000001101000 G
1@
0?
#250
0"
03
0$
#255
1"
13
1$
0C
b00011001 F
0I
0N
b11011110101011011011111011101111 L
b11011110101011011011111011101111 J
b11011110101011011011111011101111 7
b11011110101011011011111011101111 )
#260
0"
03
0$
#265
1"
13
1$
b00000000000000000000000001110000 '
b00000000000000000000000001110000 5
b00011100 E
b01 .
b01 <
1*
18
b01101011001010100010111000010001 (
b01101011001010100010111000010001 6
b00000000000000000000000001110100 G
0@
#270
0"
03
0$
#275
1"
13
1$
b00011100 F
b01101011001010100010111000010001 P
#280
0"
03
0$
#285
1"
13
1$
b00000000000000000000000011101100 '
b00000000000000000000000011101100 5
b00111011 E
0*
08
b00000000000000000000000011110000 G
#290
0"
03
0$
#295
1"
13
1$
b00111011 F
#300
0"
03
0$
#305
1"
13
1$
b00000000000000000000000010100100 '
b00000000000000000000000010100100 5
b00101001 E
b11 .
b11 <
1*
18
b11100010111000101010101011111001 (
b11100010111000101010101011111001 6
b00000000000000000000000010101000 G
0@
1?
#310
0"
03
0$
#315
1"
13
1$
1C
b00101001 F
b11100010111000101010101011111001 P
1M
#320
0"
03
0$
#325
1"
13
1$
1I
b11100010111000101010101011111001 K
1N
b11100010111000101010101011111001 L
b11100010111000101010101011111001 J
b11100010111000101010101011111001 7
b11100010111000101010101011111001 )
b00000000000000000000000010101100 '
b00000000000000000000000010101100 5
b00101011 E
b01 .
b01 <
0*
08
0M
b00000000000000000000000010110000 G
0?
#330
0"
03
0$
#335
1"
13
1$
0C
b00101011 F
0I
0N
b11011110101011011011111011101111 L
b11011110101011011011111011101111 J
b11011110101011011011111011101111 7
b11011110101011011011111011101111 )
#340
0"
03
0$
#345
1"
13
1$
b00000000000000000000000001111000 '
b00000000000000000000000001111000 5
b00011110 E
b10 .
b10 <
1*
18
b01000010010110100010000101010010 (
b01000010010110100010000101010010 6
b00000000000000000000000001111100 G
0@
1A
1?
#350
0"
03
0$
#355
1"
13
1$
1C
b00011110 F
b01000010010110100010000101010010 P
1B
1M
#360
0"
03
0$
#365
1"
13
1$
1I
b01000010010110100010000101010010 K
1N
b01000010010110100010000101010010 L
b01000010010110100010000101010010 J
b01000010010110100010000101010010 7
b01000010010110100010000101010010 )
b00000000000000000000000000110000 '
b00000000000000000000000000110000 5
b00001100 E
0*
08
0M
b00000000000000000000000000110100 G
1@
0?
#370
0"
03
0$
#375
1"
13
1$
0C
b00001100 F
0I
0N
b11011110101011011011111011101111 L
b11011110101011011011111011101111 J
b11011110101011011011111011101111 7
b11011110101011011011111011101111 )
#380
0"
03
0$
#385
1"
13
1$
b00000000000000000000000000000000 '
b00000000000000000000000000000000 5
b00000000 E
b00 .
b00 <
1*
18
b10110010010101110011001100011000 (
b10110010010101110011001100011000 6
b00000000000000000000000000000100 G
0@
1A
#390
0"
03
0$
#395
1"
13
1$
b00000000 F
b10110010010101110011001100011000 P
#400
0"
03
0$
#405
1"
13
1$
b00000000000000000000000000011000 '
b00000000000000000000000000011000 5
b00000110 E
b01 .
b01 <
0*
08
b00000000000000000000000000011100 G
0?
0A
#410
0"
03
0$
#415
1"
13
1$
b00000110 F
0B
